,počet provozoven,telefon,e-mail,vzdalenost,ulice,nazev,okres,obec
668702,1,353 892 434,,517.6972443786289,Pražská 471,"Philips Computer Morawietz, s.r.o.",Okres Karlovy Vary,Abertamy
869805,0,,,512.105163891866,Hamerská 30,Loi Nguyen Van,Okres Karlovy Vary,Horní Blatná
2556243,0,,,679.7753896764049,Vančurova 69,Jaroslava Tyrmerová,Okres Karlovy Vary,Horní Blatná
10051074,0,,,582.3820672090516,Vítězná 12,Milan Roubíček,Okres Karlovy Vary,Abertamy
12647632,1,,,522.8543311536818,Semetín 1737,Ladislav Jelínek,Okres Vsetín,Vsetín
13843184,1,606 518 911| 777 978 911,zahrady.tomek@quick.cz| zahrady.tomek@seznam.cz,679.7753896764049,Vančurova 55,Radovan Tomek,Okres Karlovy Vary,Horní Blatná
13845080,1,,,626.4768318524904,Vodárenská 374,Soňa Bauerová,Okres Karlovy Vary,Abertamy
14708922,1,353 892 112,,1249.5524913304089,Pohraničníků 43,JUDr. Jaroslav Němec,Okres Karlovy Vary,Abertamy
25040308,0,,,501.2923953919225,Šachov 237 E.,"Kout H - Servis, s. r. o.",Okres Ústí nad Labem,Povrly
25246992,0,,,524.925348211959,Dlouhá 295,"LaNova Consulting, s.r.o.",Okres Karlovy Vary,Abertamy
25418742,0,,,658.9163323015478,,"Bau Cooperation, s.r.o.",Okres Děčín,Šluknov
25846311,0,,,522.8543311536818,Semetín 899,"Wolverin, s.r.o.",Okres Vsetín,Vsetín
26404842,0,721 269 884,,517.6972443786289,Pražská 216,"GutGut, s.r.o. v likvidaci",Okres Karlovy Vary,Abertamy
26863499,0,571 420 177| 571 410 206,,522.8543311536818,Semetín 1894,"Zeman Trade, s.r.o.",Okres Vsetín,Vsetín
27377431,1,,,737.9576366359139,Rooseweltova 461,Phuong Vu Hong,Okres Karlovy Vary,Abertamy
27965490,2,,,524.925348211959,Dlouhá 46,Hoat Tran Minh,Okres Karlovy Vary,Abertamy
27982840,2,,,511.6579418338137,Hornická 469,Thi Yen Nguyen,Okres Karlovy Vary,Abertamy
27991512,1,,,742.2476999983772,Majakovského 230,Sinh Le Van,Okres Karlovy Vary,Horní Blatná
28265769,0,,,1649.977168242334,,"Talwin, a.s.",Okres Teplice,Moldava
28294611,0,608 318 420,krutak@2jk.cz,737.9576366359139,Rooseweltova 356,"2JK, s.r.o.",Okres Karlovy Vary,Abertamy
40561674,0,,,573.6887319728708,Nerudova 428,Pavel Bacík,Okres Karlovy Vary,Abertamy
41034406,1,,,799.7258522129193,,Šance plus s. r. o. v likvidaci,Okres Frýdek-Místek,Mosty u Jablunkova
41364031,0,,,511.6579418338137,Hornická 469,Josef Jankovič,Okres Karlovy Vary,Abertamy
42866049,0,,,571.7028843756236,,"S.C.K., k.s. v likvidaci",Okres Vsetín,Velké Karlovice
43302742,1,,,679.7753896764049,Vančurova 80,Robert Petro,Okres Karlovy Vary,Horní Blatná
44667451,1,,,517.6972443786289,Pražská 216,Ivo Linda,Okres Karlovy Vary,Abertamy
46530797,0,,,522.8543311536818,Semetín 1575,Rostislav Machala,Okres Vsetín,Vsetín
46839542,1,,,679.0032798036568,Jáchymovská 151,Antonín Březina,Okres Karlovy Vary,Abertamy
46839852,0,,,582.3820672090516,Vítězná 197,Petr Svoboda,Okres Karlovy Vary,Abertamy
47591323,0,,,742.2476999983772,Majakovského 230,Giang LE VAN,Okres Karlovy Vary,Horní Blatná
47678054,2,571 411 023,info@lesyvsetin.cz,522.8543311536818,Semetín 2199,"Městské lesy Vsetín, s. r. o.",Okres Vsetín,Vsetín
47679841,0,,,535.512698611482,,"Ponko, s.r.o. (spol. s r.o.) v likvidaci",Okres Vsetín,Karolinka
47771186,0,,,511.6579418338137,Hornická 468,Nu Nguyen Thi,Okres Karlovy Vary,Abertamy
47827157,0,,,522.8543311536818,Semetín 1726,Antonín Macháček,Okres Vsetín,Vsetín
48089885,0,,,679.0032798036568,Jáchymovská 149,Kinh Phung Duc - HAI Hung,Okres Karlovy Vary,Abertamy
48372315,0,,,737.9576366359139,Rooseweltova 357,Petr Fořt - Kola,Okres Karlovy Vary,Abertamy
49192949,2,,,598.2385228896501,,"Sero - Marketing, s.r.o.",Okres Tachov,Chodová Planá
49213164,1,,,512.105163891866,Hamerská 36,Jana Vítková,Okres Karlovy Vary,Horní Blatná
49213431,1,,,1249.5524913304089,Pohraničníků 102,Tiem Tran Dinh - Textil,Okres Karlovy Vary,Abertamy
49217071,1,604 595 361,marcela.lindova@seznam.cz,679.0032798036568,Jáchymovská 149,Marcela Kopetová,Okres Karlovy Vary,Abertamy
49787934,1,,,598.2385228896501,,"Baustoff Service Böhmen, s.r.o.",Okres Tachov,Chodová Planá
61170780,2,,,524.925348211959,Dlouhá 295,"Kreunof, s.r.o.",Okres Karlovy Vary,Abertamy
61177881,1,,,511.6579418338137,Hornická 468,Thanh Nguyen Sy,Okres Karlovy Vary,Abertamy
61184764,0,,,679.7753896764049,Vančurova 80,Tuan Doan Anh,Okres Karlovy Vary,Horní Blatná
61603074,0,,,522.8543311536818,Semetín 113,Lenka Urbanová,Okres Vsetín,Vsetín
61775258,2,,,737.9576366359139,Rooseweltova 460,Phuong Lan Vu,Okres Karlovy Vary,Abertamy
61838438,0,,,700.8298086331141,Jiráskova 262,Sau Nguyen Ngoc,Okres Karlovy Vary,Horní Blatná
62622234,0,,,511.6579418338137,Hornická 9,Thang Nguyen Hung,Okres Karlovy Vary,Abertamy
62646907,0,,,511.6579418338137,Hornická 468,Nhan Nguyen Thi,Okres Karlovy Vary,Abertamy
62762508,1,,,582.3820672090516,Vítězná 288,Phan Nguyen Ngoc,Okres Karlovy Vary,Abertamy
63351862,0,,,511.6579418338137,Hornická 468,Rang Nguyen Thi,Okres Karlovy Vary,Abertamy
63526859,0,,,737.9576366359139,Rooseweltova 461,Thanh Nguyen Van,Okres Karlovy Vary,Abertamy
63556715,0,,,737.9576366359139,Rooseweltova 460,Duc Vinh Tran,Okres Karlovy Vary,Abertamy
63722232,0,,,522.8543311536818,Semetín 1210,Michaela Popelková,Okres Vsetín,Vsetín
64196593,0,,,679.0032798036568,Jáchymovská 285,Stanislav Petro,Okres Karlovy Vary,Abertamy
64851583,0,,,588.7234291559937,Krátká 457,Stephan Sovic,Okres Karlovy Vary,Abertamy
65558642,0,,,742.2476999983772,Majakovského 230,Quyen Le Thi,Okres Karlovy Vary,Horní Blatná
65558766,0,,,679.7753896764049,Vančurova 76,Thao Nguyen Thi - Textil,Okres Karlovy Vary,Horní Blatná
65582896,0,,,737.9576366359139,Rooseweltova 460,Minh Hoi Van,Okres Karlovy Vary,Abertamy
66985412,0,,,502.76875113821325,Perninská 210,Alena Frančová,Okres Karlovy Vary,Horní Blatná
67090206,0,,,588.7234291559937,Krátká 457,Andrea Straková,Okres Karlovy Vary,Abertamy
67090346,0,,,524.925348211959,Dlouhá 39,Stanislav Ševčišin,Okres Karlovy Vary,Abertamy
67091890,0,,,1249.5524913304089,Pohraničníků 68,Petra Klímová,Okres Karlovy Vary,Abertamy
67302122,0,,,522.8543311536818,Semetín 1723,Miroslav Chrástecký,Okres Vsetín,Vsetín
67663788,0,,,737.9576366359139,Rooseweltova 461,Hung Le Quang,Okres Karlovy Vary,Abertamy
67811477,0,,,511.6579418338137,Hornická 469,Bac Ta Huu,Okres Karlovy Vary,Abertamy
68795491,0,,,742.2476999983772,Majakovského 230,Ngu Nguyen Thanh,Okres Karlovy Vary,Horní Blatná
69272123,0,,,679.0032798036568,Jáchymovská 285,Lilian Rudincová,Okres Karlovy Vary,Abertamy
69272280,1,608 978 297| 603 470 641,cse@volny.cz,524.925348211959,Dlouhá 292,Jiří Henke,Okres Karlovy Vary,Abertamy
72235594,0,,,1249.5524913304089,Pohraničníků 187,Marcela Nedbalá,Okres Karlovy Vary,Abertamy
73256714,0,,,522.8543311536818,Semetín 1424,Ing. Libor Skácal,Okres Vsetín,Vsetín
73258041,0,,,522.8543311536818,Semetín 1707,Renata Orságová,Okres Vsetín,Vsetín
74363166,0,,,522.8543311536818,Semetín 1727,Ing. Vít Davídek,Okres Vsetín,Vsetín
88525678,1,,,522.8543311536818,Semetín 1706,Monika Havelková,Okres Vsetín,Vsetín
88666778,0,,,511.6579418338137,Hornická 468,Manh Nguyen Van,Okres Karlovy Vary,Abertamy
